scoreboard players remove @e[tag=SystemHandler,name=SystemHandler] GTS 1
execute @e[tag=SystemHandler,name=SystemHandler,score_GTS_min=-1,score_GTS=-1] ~ ~ ~ function gametimer:action/minus_min
scoreboard players set @e[tag=SystemHandler,name=SystemHandler,score_GTS_min=-1,score_GTS=-1] GTS 59
function battleroyale_mgd:display/display