scoreboard players add @e[tag=SystemHandler,name=SystemHandler] GTS 1
execute @e[tag=SystemHandler,name=SystemHandler,score_GTS_min=60,score_GTS=60] ~ ~ ~ function gametimer:action/plus_min
scoreboard players set @e[tag=SystemHandler,name=SystemHandler,score_GTS_min=60,score_GTS=60] GTS 0
function battleroyale_mgd:display/display